SequentialRNN (Input shape: 128 x 3265)
============================================================================
Layer (type)         Output Shape         Param #    Trainable 
============================================================================
                     128 x 25 x 1152     
LSTM                                                           
LSTM                                                           
____________________________________________________________________________
                     128 x 25 x 400      
LSTM                                                           
RNNDropout                                                     
RNNDropout                                                     
RNNDropout                                                     
BatchNorm1d                               2400       True      
Dropout                                                        
____________________________________________________________________________
                     128 x 50            
Linear                                    60000      True      
ReLU                                                           
BatchNorm1d                               100        True      
Dropout                                                        
____________________________________________________________________________
                     128 x 2             
Linear                                    100        True      
____________________________________________________________________________

Total params: 62,600
Total trainable params: 62,600
Total non-trainable params: 0

